id;step_num;step_description
1;71081;Nord-Pas-de-Calais
2;60603;Frozen Moldovan
3;75381;ivory Mouse
4;56092;hacking
5;63677;Re-engineered Guyane
6;58472;Augustins
7;4674;Shirt
8;63476;solution Ball
9;71448;Metal
10;20912;web
