id;name;creation_date;description;preparation_duration;rest_duraction;cooking_duration;winter_preferrency;spring_preferrency;summer_preferrency;autumn_preferrency;number_of_people;recipe_type;recipe_url;short_steps;is_short_desc_recipe
1;Shoes d'Assas Champagne-Ardenne;2022-03-22;invoice Designer;63619;87022;98743;FALSE;FALSE;TRUE;FALSE;1712;APERITIF;Wooden Paraguay;Salad c;true
2;hybrid Sterling Handmade;2022-03-22;Rhône-Alpes;77220;28929;17806;FALSE;FALSE;TRUE;FALSE;81735;DESSERT;rich;generating Bedfordshire;true
3;Practical quantify;2022-03-22;Towels solutions 24/365;53952;57340;57188;FALSE;FALSE;TRUE;TRUE;94864;MAIN;Awesome neural;Bourgogne Buckinghamshire Sleek;true
4;methodologies JBOD Irak;2022-03-21;Baby AI;42880;91567;32041;FALSE;FALSE;FALSE;FALSE;847;MAIN;invoice Pakistan São;Lepic;true
5;invoice b Shoes;2022-03-22;Frozen de;29841;36929;83477;FALSE;TRUE;TRUE;TRUE;17064;APERITIF;Lesotho object-oriented Granite;Wooden Agent a;true
6;Haute-Normandie;2022-03-21;Dollar;84635;77075;78413;FALSE;TRUE;FALSE;FALSE;74835;STARTER;Chair program;b;false
7;Plastic input aggregate;2022-03-22;convergence Harpe morph;34868;78455;19280;TRUE;TRUE;TRUE;FALSE;77713;STARTER;Cambridgeshire;integrate;false
8;mobile programming;2022-03-22;Mouse Phased Open-architected;95051;64707;30759;FALSE;FALSE;FALSE;TRUE;53282;MAIN;Specialiste;back-end dot-com Account;false
9;multi-byte port users;2022-03-22;b Loan;18975;24660;50455;TRUE;FALSE;TRUE;FALSE;80280;MAIN;Ergonomic;payment lavender Licensed;false
10;b;2022-03-21;24/7 Investment;92325;68050;56981;FALSE;TRUE;FALSE;FALSE;79711;MAIN;regional;full-range Champagne-Ardenne Virtual;true
