{
  "applications": "*",
  "changelogDate": "20220322152506",
  "dto": "mapstruct",
  "embedded": false,
  "entityTableName": "product",
  "fields": [
    {
      "fieldName": "name",
      "fieldType": "String",
      "fieldValidateRules": ["required", "maxlength"],
      "fieldValidateRulesMaxlength": "200",
      "javadoc": "name"
    },
    {
      "fieldName": "picture",
      "fieldType": "byte[]",
      "fieldTypeBlobContent": "image"
    }
  ],
  "fluentMethods": true,
  "javadoc": "The Product entity.\\n@author A true hipster",
  "jpaMetamodelFiltering": true,
  "name": "Product",
  "pagination": "infinite-scroll",
  "readOnly": false,
  "relationships": [
    {
      "otherEntityField": "name",
      "otherEntityName": "sheld",
      "otherEntityRelationshipName": "product",
      "relationshipName": "sheld",
      "relationshipType": "many-to-one"
    }
  ],
  "searchEngine": "elasticsearch",
  "service": "serviceClass"
}
